{}
DTMC
Point found: {p0:0.25256240930785534;p1:0.06300349579755046;p2:0.2120510011248788;p3:0.16217520788331646;p4:0.25741571599331553;p5:0.012756923585285823;p6:0.0919658065712852;p7:0.39517323668684895;p8:0.07761853852648859;p9:0.09200250202824328;p10:0.6796292351743504;p11:0.3190089468101265;p12:0.518123935272741;p13:0.4534191359652129;p14:0.1376143432720312;p15:0.03596311084962939;p16:0.2596219050603644;p17:0.5113734343954892;p18:0.19423197222961994;p19:0.07662361730133312;p20:0.33586550488749656;p21:0.6236890397347914;p22:0.5251239457313603;p23:0.2713033030780956;p24:0.05142127770296173;p25:0.5488530043417431;p26:0.05768399804665647;p27:0.3609699378465193;p28:0.7474204736162331;p29:1.0000000000003062e-05;p30:0.21772039169640078;p31:0.7285896226045362}: 7162047105417099/9007199254740992 (approx. 0.7951469599884019)
This procedure took 3.345431089401245s (from start: 3.352370023727417s)
