{}
DTMC
Academic license - for non-commercial use only - expires 2022-12-22
Using license file /Users/bahare/gurobi.lic
Solving...
Solving...
Solving...
Solving...
Solving...
Solving...
Solving...
Solving...
Solving...
Solving...
Solving...
Qcqp: 0.5270460860068773: Mc: 0.5270460705769519
iterations =10
solver time=0.09583878517150879
encoding time=0.3475072383880615
iterate time=0.0
inner part = 0.01667308807373047s (0.22124498551018085)
adding constraints = 0.0s
Point found: {p28:5907583109530649/590295810358705651712;p29:2953672830704979/295147905179352825856;p30:5907590476185373/590295810358705651712;p31:1476912610627255/147573952589676412928;p19:738232841375501/73786976294838206464;p20:5905730483911471/590295810358705651712;p21:5905888295341273/590295810358705651712;p22:738919312396887/73786976294838206464;p23:2955712905508293/295147905179352825856;p24:5911476120546689/590295810358705651712;p25:2955755662873953/295147905179352825856;p26:1477870384874277/147573952589676412928;p27:5911412495368717/590295810358705651712;p9:2952559759185055/295147905179352825856;p10:2952523829100233/295147905179352825856;p11:5905928588471981/590295810358705651712;p12:2952567522100469/295147905179352825856;p13:5907651909873325/590295810358705651712;p14:5902958103587057/590295810358705651712;p15:2953851865784081/295147905179352825856;p16:5907718844109655/590295810358705651712;p17:2953853027175043/295147905179352825856;p18:2953838274454601/295147905179352825856;p0:5902958103587057/590295810358705651712;p1:5902958103587057/590295810358705651712;p2:5902958103587057/590295810358705651712;p3:5902958103587057/590295810358705651712;p4:5902958103587057/590295810358705651712;p5:5902958103587057/590295810358705651712;p6:5902958103587057/590295810358705651712;p7:5902958103587057/590295810358705651712;p8:5902958103587057/590295810358705651712}: 4747208974114889/9007199254740992 (approx. 0.5270460705769519)
