{}
DTMC
Point found: {p0:0.07104463747672299;p1:0.08713755711554669}: 8996079956774591/9007199254740992 (approx. 0.9987655099380034)
This procedure took 1.792942762374878s (from start: 1.8014473915100098s)
