Storm-pars 1.6.4 (dev)

Date: Thu May 12 10:44:58 2022
Command line arguments: --explicit-drn pso-qcqp-gd-benchmarks/hepar2/drn_files/hepar2_128.drn --prop 'Pmin<=0.998600 [F("ggtp1"|"ast1"|"cholesterol1"|"hcv_anti1")]
' --find-feasible
Current working directory: /home/hans/Desktop/feasibility-JAIR

Time for model construction: 1.677s.

-------------------------------------------------------------- 
Model type: 	DTMC (sparse)
States: 	11698
Transitions: 	32289
Reward Models:  none
State Labels: 	164 labels
   * deadlock -> 3 item(s)
   * density1 -> 2 item(s)
   * ascites0 -> 2 item(s)
   * proteins1 -> 2 item(s)
   * encephalopathy1 -> 3 item(s)
   * spiders1 -> 6 item(s)
   * edge1 -> 6 item(s)
   * edge0 -> 6 item(s)
   * irregular_liver0 -> 6 item(s)
   * albumin0 -> 6 item(s)
   * alcohol1 -> 6 item(s)
   * alcohol0 -> 6 item(s)
   * carcinoma1 -> 6 item(s)
   * carcinoma0 -> 6 item(s)
   * skin1 -> 6 item(s)
   * pain0 -> 24 item(s)
   * joints1 -> 24 item(s)
   * palms1 -> 6 item(s)
   * age0 -> 12 item(s)
   * le_cells1 -> 24 item(s)
   * ama0 -> 24 item(s)
   * hepatomegaly0 -> 192 item(s)
   * PBC0 -> 48 item(s)
   * age2 -> 12 item(s)
   * edema1 -> 6 item(s)
   * hbsag_anti0 -> 6 item(s)
   * hbc_anti0 -> 12 item(s)
   * hbsag0 -> 12 item(s)
   * ggtp3 -> 192 item(s)
   * platelet0 -> 72 item(s)
   * pressure_ruq0 -> 24 item(s)
   * bleeding1 -> 24 item(s)
   * alcoholism0 -> 24 item(s)
   * ESR0 -> 96 item(s)
   * proteins0 -> 2 item(s)
   * anorexia1 -> 192 item(s)
   * hbeag1 -> 12 item(s)
   * amylase1 -> 4 item(s)
   * bilirubin2 -> 18 item(s)
   * consciousness1 -> 2 item(s)
   * sex1 -> 6 item(s)
   * cholesterol2 -> 96 item(s)
   * hbsag_anti1 -> 6 item(s)
   * ChHepatitis1 -> 4 item(s)
   * flatulence1 -> 4 item(s)
   * alcoholism1 -> 24 item(s)
   * fat0 -> 4 item(s)
   * flatulence0 -> 4 item(s)
   * joints0 -> 24 item(s)
   * Hyperbilirubinemia0 -> 12 item(s)
   * PBC1 -> 48 item(s)
   * RHepatitis1 -> 96 item(s)
   * surgery0 -> 8 item(s)
   * itching1 -> 24 item(s)
   * diabetes0 -> 48 item(s)
   * urea1 -> 1 item(s)
   * gallstones0 -> 2 item(s)
   * Steatosis0 -> 48 item(s)
   * THepatitis1 -> 96 item(s)
   * ama1 -> 24 item(s)
   * fat1 -> 4 item(s)
   * density0 -> 2 item(s)
   * anorexia0 -> 192 item(s)
   * amylase2 -> 4 item(s)
   * Cirrhosis2 -> 192 item(s)
   * palms0 -> 6 item(s)
   * pain1 -> 24 item(s)
   * injections0 -> 16 item(s)
   * hcv_anti0 -> 12 item(s)
   * hbeag0 -> 12 item(s)
   * ascites1 -> 2 item(s)
   * fibrosis1 -> 192 item(s)
   * jaundice0 -> 72 item(s)
   * amylase0 -> 4 item(s)
   * hospital1 -> 1 item(s)
   * hepatomegaly1 -> 192 item(s)
   * upper_pain0 -> 4 item(s)
   * choledocholithotomy0 -> 4 item(s)
   * gallstones1 -> 2 item(s)
   * fibrosis0 -> 192 item(s)
   * alt0 -> 576 item(s)
   * encephalopathy0 -> 3 item(s)
   * le_cells0 -> 24 item(s)
   * surgery1 -> 8 item(s)
   * hepatotoxic1 -> 96 item(s)
   * Cirrhosis1 -> 192 item(s)
   * bilirubin0 -> 18 item(s)
   * age3 -> 12 item(s)
   * spleen0 -> 288 item(s)
   * init -> 1 item(s)
   * vh_amn0 -> 8 item(s)
   * jaundice1 -> 72 item(s)
   * Cirrhosis0 -> 192 item(s)
   * choledocholithotomy1 -> 4 item(s)
   * injections1 -> 16 item(s)
   * transfusion0 -> 4 item(s)
   * Hyperbilirubinemia1 -> 12 item(s)
   * transfusion1 -> 4 item(s)
   * urea2 -> 1 item(s)
   * urea0 -> 1 item(s)
   * alt3 -> 576 item(s)
   * hbsag1 -> 12 item(s)
   * ChHepatitis0 -> 4 item(s)
   * ChHepatitis2 -> 4 item(s)
   * hcv_anti1 -> 12 item(s)
   * vh_amn1 -> 8 item(s)
   * bleeding0 -> 24 item(s)
   * ast2 -> 288 item(s)
   * hbc_anti1 -> 12 item(s)
   * fatigue0 -> 192 item(s)
   * consciousness0 -> 2 item(s)
   * alt2 -> 576 item(s)
   * upper_pain1 -> 4 item(s)
   * diabetes1 -> 48 item(s)
   * obesity0 -> 48 item(s)
   * sex0 -> 6 item(s)
   * obesity1 -> 48 item(s)
   * Steatosis1 -> 48 item(s)
   * ESR1 -> 96 item(s)
   * platelet2 -> 72 item(s)
   * ESR2 -> 96 item(s)
   * pain_ruq0 -> 96 item(s)
   * spiders0 -> 6 item(s)
   * hospital0 -> 1 item(s)
   * phosphatase0 -> 144 item(s)
   * pain_ruq1 -> 96 item(s)
   * nausea0 -> 192 item(s)
   * cholesterol0 -> 96 item(s)
   * cholesterol1 -> 96 item(s)
   * pressure_ruq1 -> 24 item(s)
   * triglycerides0 -> 96 item(s)
   * triglycerides1 -> 96 item(s)
   * triglycerides2 -> 96 item(s)
   * hepatotoxic0 -> 96 item(s)
   * THepatitis0 -> 96 item(s)
   * RHepatitis0 -> 96 item(s)
   * skin0 -> 6 item(s)
   * ggtp0 -> 192 item(s)
   * ggtp1 -> 192 item(s)
   * irregular_liver1 -> 6 item(s)
   * ggtp2 -> 192 item(s)
   * fatigue1 -> 192 item(s)
   * edema0 -> 6 item(s)
   * hepatalgia0 -> 192 item(s)
   * hepatalgia1 -> 192 item(s)
   * alt1 -> 576 item(s)
   * ast0 -> 288 item(s)
   * ast1 -> 288 item(s)
   * ast3 -> 288 item(s)
   * spleen1 -> 288 item(s)
   * phosphatase1 -> 144 item(s)
   * itching0 -> 24 item(s)
   * phosphatase2 -> 144 item(s)
   * albumin2 -> 6 item(s)
   * age1 -> 12 item(s)
   * inr0 -> 72 item(s)
   * albumin1 -> 6 item(s)
   * nausea1 -> 192 item(s)
   * inr1 -> 72 item(s)
   * inr2 -> 72 item(s)
   * bilirubin1 -> 18 item(s)
   * bilirubin3 -> 18 item(s)
   * platelet1 -> 72 item(s)
   * platelet3 -> 72 item(s)
Choice Labels: 	none
-------------------------------------------------------------- 

Time for model simplification: 0.215s.

-------------------------------------------------------------- 
Model type: 	DTMC (sparse)
States: 	3485
Transitions: 	10572
Reward Models:  none
State Labels: 	165 labels
   * pain1 -> 24 item(s)
   * palms0 -> 1 item(s)
   * obesity1 -> 48 item(s)
   * sex0 -> 6 item(s)
   * nausea1 -> 0 item(s)
   * inr1 -> 1 item(s)
   * albumin1 -> 1 item(s)
   * nausea0 -> 0 item(s)
   * le_cells1 -> 0 item(s)
   * le_cells0 -> 0 item(s)
   * encephalopathy0 -> 1 item(s)
   * itching1 -> 1 item(s)
   * diabetes0 -> 48 item(s)
   * irregular_liver1 -> 1 item(s)
   * ggtp2 -> 0 item(s)
   * inr2 -> 1 item(s)
   * itching0 -> 1 item(s)
   * phosphatase2 -> 1 item(s)
   * injections0 -> 16 item(s)
   * init -> 1 item(s)
   * hospital0 -> 1 item(s)
   * phosphatase0 -> 1 item(s)
   * spiders0 -> 1 item(s)
   * jaundice1 -> 1 item(s)
   * Cirrhosis0 -> 0 item(s)
   * hospital1 -> 1 item(s)
   * hepatomegaly1 -> 0 item(s)
   * hepatalgia1 -> 192 item(s)
   * hepatalgia0 -> 192 item(s)
   * edema0 -> 1 item(s)
   * hcv_anti1 -> 1 item(s)
   * hbsag_anti1 -> 6 item(s)
   * cholesterol2 -> 0 item(s)
   * hbsag1 -> 0 item(s)
   * hbeag1 -> 12 item(s)
   * hbsag_anti0 -> 6 item(s)
   * edema1 -> 1 item(s)
   * hbc_anti0 -> 0 item(s)
   * Steatosis0 -> 0 item(s)
   * ggtp1 -> 1 item(s)
   * alcohol0 -> 1 item(s)
   * Hyperbilirubinemia0 -> 0 item(s)
   * PBC1 -> 48 item(s)
   * bilirubin3 -> 1 item(s)
   * hepatotoxic1 -> 96 item(s)
   * Cirrhosis1 -> 0 item(s)
   * bilirubin0 -> 1 item(s)
   * surgery1 -> 8 item(s)
   * ast1 -> 1 item(s)
   * ascites0 -> 1 item(s)
   * choledocholithotomy0 -> 4 item(s)
   * alt0 -> 320 item(s)
   * ama0 -> 0 item(s)
   * hepatomegaly0 -> 0 item(s)
   * ast3 -> 1 item(s)
   * ESR2 -> 0 item(s)
   * pain_ruq0 -> 96 item(s)
   * amylase0 -> 0 item(s)
   * bilirubin1 -> 1 item(s)
   * cholesterol1 -> 1 item(s)
   * fat1 -> 4 item(s)
   * gallstones0 -> 0 item(s)
   * urea1 -> 1 item(s)
   * ESR0 -> 0 item(s)
   * proteins1 -> 1 item(s)
   * pressure_ruq0 -> 0 item(s)
   * spiders1 -> 1 item(s)
   * upper_pain0 -> 0 item(s)
   * ChHepatitis1 -> 0 item(s)
   * spleen0 -> 1 item(s)
   * age3 -> 12 item(s)
   * anorexia1 -> 0 item(s)
   * proteins0 -> 1 item(s)
   * spleen1 -> 1 item(s)
   * transfusion1 -> 4 item(s)
   * urea0 -> 1 item(s)
   * urea2 -> 1 item(s)
   * alt3 -> 320 item(s)
   * amylase2 -> 0 item(s)
   * Cirrhosis2 -> 0 item(s)
   * platelet0 -> 1 item(s)
   * ggtp0 -> 0 item(s)
   * skin0 -> 1 item(s)
   * ggtp3 -> 0 item(s)
   * hbsag0 -> 0 item(s)
   * transfusion0 -> 4 item(s)
   * skin1 -> 1 item(s)
   * amylase1 -> 0 item(s)
   * bilirubin2 -> 1 item(s)
   * triglycerides1 -> 96 item(s)
   * target -> 1 item(s)
   * carcinoma1 -> 1 item(s)
   * triglycerides2 -> 96 item(s)
   * ast0 -> 1 item(s)
   * vh_amn1 -> 8 item(s)
   * vh_amn0 -> 8 item(s)
   * triglycerides0 -> 96 item(s)
   * pressure_ruq1 -> 0 item(s)
   * platelet3 -> 1 item(s)
   * platelet2 -> 1 item(s)
   * ESR1 -> 0 item(s)
   * phosphatase1 -> 1 item(s)
   * pain_ruq1 -> 96 item(s)
   * cholesterol0 -> 0 item(s)
   * platelet1 -> 1 item(s)
   * alcoholism0 -> 24 item(s)
   * bleeding1 -> 1 item(s)
   * albumin0 -> 1 item(s)
   * fatigue0 -> 0 item(s)
   * irregular_liver0 -> 1 item(s)
   * hbc_anti1 -> 0 item(s)
   * bleeding0 -> 1 item(s)
   * ast2 -> 1 item(s)
   * PBC0 -> 48 item(s)
   * ama1 -> 0 item(s)
   * THepatitis1 -> 96 item(s)
   * ChHepatitis2 -> 0 item(s)
   * ChHepatitis0 -> 0 item(s)
   * Hyperbilirubinemia1 -> 0 item(s)
   * palms1 -> 1 item(s)
   * age0 -> 12 item(s)
   * joints1 -> 0 item(s)
   * alt1 -> 320 item(s)
   * RHepatitis0 -> 0 item(s)
   * Steatosis1 -> 0 item(s)
   * THepatitis0 -> 96 item(s)
   * age2 -> 12 item(s)
   * carcinoma0 -> 1 item(s)
   * edge0 -> 1 item(s)
   * surgery0 -> 8 item(s)
   * RHepatitis1 -> 0 item(s)
   * alcoholism1 -> 24 item(s)
   * fat0 -> 4 item(s)
   * flatulence1 -> 0 item(s)
   * flatulence0 -> 0 item(s)
   * joints0 -> 0 item(s)
   * alcohol1 -> 1 item(s)
   * choledocholithotomy1 -> 4 item(s)
   * edge1 -> 1 item(s)
   * pain0 -> 24 item(s)
   * alt2 -> 320 item(s)
   * consciousness0 -> 1 item(s)
   * sex1 -> 6 item(s)
   * consciousness1 -> 1 item(s)
   * obesity0 -> 48 item(s)
   * deadlock -> 1 item(s)
   * age1 -> 12 item(s)
   * albumin2 -> 1 item(s)
   * inr0 -> 1 item(s)
   * anorexia0 -> 0 item(s)
   * density0 -> 1 item(s)
   * hepatotoxic0 -> 96 item(s)
   * density1 -> 1 item(s)
   * upper_pain1 -> 0 item(s)
   * diabetes1 -> 48 item(s)
   * encephalopathy1 -> 1 item(s)
   * injections1 -> 16 item(s)
   * fatigue1 -> 0 item(s)
   * ascites1 -> 1 item(s)
   * fibrosis1 -> 192 item(s)
   * hcv_anti0 -> 0 item(s)
   * hbeag0 -> 12 item(s)
   * jaundice0 -> 1 item(s)
   * fibrosis0 -> 192 item(s)
   * gallstones1 -> 0 item(s)
Choice Labels: 	none
-------------------------------------------------------------- 

Time for model preprocessing: 0.215s.

-------------------------------------------------------------- 
Model type: 	DTMC (sparse)
States: 	3485
Transitions: 	10572
Reward Models:  none
State Labels: 	165 labels
   * pain1 -> 24 item(s)
   * palms0 -> 1 item(s)
   * obesity1 -> 48 item(s)
   * sex0 -> 6 item(s)
   * nausea1 -> 0 item(s)
   * inr1 -> 1 item(s)
   * albumin1 -> 1 item(s)
   * nausea0 -> 0 item(s)
   * le_cells1 -> 0 item(s)
   * le_cells0 -> 0 item(s)
   * encephalopathy0 -> 1 item(s)
   * itching1 -> 1 item(s)
   * diabetes0 -> 48 item(s)
   * irregular_liver1 -> 1 item(s)
   * ggtp2 -> 0 item(s)
   * inr2 -> 1 item(s)
   * itching0 -> 1 item(s)
   * phosphatase2 -> 1 item(s)
   * injections0 -> 16 item(s)
   * init -> 1 item(s)
   * hospital0 -> 1 item(s)
   * phosphatase0 -> 1 item(s)
   * spiders0 -> 1 item(s)
   * jaundice1 -> 1 item(s)
   * Cirrhosis0 -> 0 item(s)
   * hospital1 -> 1 item(s)
   * hepatomegaly1 -> 0 item(s)
   * hepatalgia1 -> 192 item(s)
   * hepatalgia0 -> 192 item(s)
   * edema0 -> 1 item(s)
   * hcv_anti1 -> 1 item(s)
   * hbsag_anti1 -> 6 item(s)
   * cholesterol2 -> 0 item(s)
   * hbsag1 -> 0 item(s)
   * hbeag1 -> 12 item(s)
   * hbsag_anti0 -> 6 item(s)
   * edema1 -> 1 item(s)
   * hbc_anti0 -> 0 item(s)
   * Steatosis0 -> 0 item(s)
   * ggtp1 -> 1 item(s)
   * alcohol0 -> 1 item(s)
   * Hyperbilirubinemia0 -> 0 item(s)
   * PBC1 -> 48 item(s)
   * bilirubin3 -> 1 item(s)
   * hepatotoxic1 -> 96 item(s)
   * Cirrhosis1 -> 0 item(s)
   * bilirubin0 -> 1 item(s)
   * surgery1 -> 8 item(s)
   * ast1 -> 1 item(s)
   * ascites0 -> 1 item(s)
   * choledocholithotomy0 -> 4 item(s)
   * alt0 -> 320 item(s)
   * ama0 -> 0 item(s)
   * hepatomegaly0 -> 0 item(s)
   * ast3 -> 1 item(s)
   * ESR2 -> 0 item(s)
   * pain_ruq0 -> 96 item(s)
   * amylase0 -> 0 item(s)
   * bilirubin1 -> 1 item(s)
   * cholesterol1 -> 1 item(s)
   * fat1 -> 4 item(s)
   * gallstones0 -> 0 item(s)
   * urea1 -> 1 item(s)
   * ESR0 -> 0 item(s)
   * proteins1 -> 1 item(s)
   * pressure_ruq0 -> 0 item(s)
   * spiders1 -> 1 item(s)
   * upper_pain0 -> 0 item(s)
   * ChHepatitis1 -> 0 item(s)
   * spleen0 -> 1 item(s)
   * age3 -> 12 item(s)
   * anorexia1 -> 0 item(s)
   * proteins0 -> 1 item(s)
   * spleen1 -> 1 item(s)
   * transfusion1 -> 4 item(s)
   * urea0 -> 1 item(s)
   * urea2 -> 1 item(s)
   * alt3 -> 320 item(s)
   * amylase2 -> 0 item(s)
   * Cirrhosis2 -> 0 item(s)
   * platelet0 -> 1 item(s)
   * ggtp0 -> 0 item(s)
   * skin0 -> 1 item(s)
   * ggtp3 -> 0 item(s)
   * hbsag0 -> 0 item(s)
   * transfusion0 -> 4 item(s)
   * skin1 -> 1 item(s)
   * amylase1 -> 0 item(s)
   * bilirubin2 -> 1 item(s)
   * triglycerides1 -> 96 item(s)
   * target -> 1 item(s)
   * carcinoma1 -> 1 item(s)
   * triglycerides2 -> 96 item(s)
   * ast0 -> 1 item(s)
   * vh_amn1 -> 8 item(s)
   * vh_amn0 -> 8 item(s)
   * triglycerides0 -> 96 item(s)
   * pressure_ruq1 -> 0 item(s)
   * platelet3 -> 1 item(s)
   * platelet2 -> 1 item(s)
   * ESR1 -> 0 item(s)
   * phosphatase1 -> 1 item(s)
   * pain_ruq1 -> 96 item(s)
   * cholesterol0 -> 0 item(s)
   * platelet1 -> 1 item(s)
   * alcoholism0 -> 24 item(s)
   * bleeding1 -> 1 item(s)
   * albumin0 -> 1 item(s)
   * fatigue0 -> 0 item(s)
   * irregular_liver0 -> 1 item(s)
   * hbc_anti1 -> 0 item(s)
   * bleeding0 -> 1 item(s)
   * ast2 -> 1 item(s)
   * PBC0 -> 48 item(s)
   * ama1 -> 0 item(s)
   * THepatitis1 -> 96 item(s)
   * ChHepatitis2 -> 0 item(s)
   * ChHepatitis0 -> 0 item(s)
   * Hyperbilirubinemia1 -> 0 item(s)
   * palms1 -> 1 item(s)
   * age0 -> 12 item(s)
   * joints1 -> 0 item(s)
   * alt1 -> 320 item(s)
   * RHepatitis0 -> 0 item(s)
   * Steatosis1 -> 0 item(s)
   * THepatitis0 -> 96 item(s)
   * age2 -> 12 item(s)
   * carcinoma0 -> 1 item(s)
   * edge0 -> 1 item(s)
   * surgery0 -> 8 item(s)
   * RHepatitis1 -> 0 item(s)
   * alcoholism1 -> 24 item(s)
   * fat0 -> 4 item(s)
   * flatulence1 -> 0 item(s)
   * flatulence0 -> 0 item(s)
   * joints0 -> 0 item(s)
   * alcohol1 -> 1 item(s)
   * choledocholithotomy1 -> 4 item(s)
   * edge1 -> 1 item(s)
   * pain0 -> 24 item(s)
   * alt2 -> 320 item(s)
   * consciousness0 -> 1 item(s)
   * sex1 -> 6 item(s)
   * consciousness1 -> 1 item(s)
   * obesity0 -> 48 item(s)
   * deadlock -> 1 item(s)
   * age1 -> 12 item(s)
   * albumin2 -> 1 item(s)
   * inr0 -> 1 item(s)
   * anorexia0 -> 0 item(s)
   * density0 -> 1 item(s)
   * hepatotoxic0 -> 96 item(s)
   * density1 -> 1 item(s)
   * upper_pain1 -> 0 item(s)
   * diabetes1 -> 48 item(s)
   * encephalopathy1 -> 1 item(s)
   * injections1 -> 16 item(s)
   * fatigue1 -> 0 item(s)
   * ascites1 -> 1 item(s)
   * fibrosis1 -> 192 item(s)
   * hcv_anti0 -> 0 item(s)
   * hbeag0 -> 12 item(s)
   * jaundice0 -> 1 item(s)
   * fibrosis0 -> 192 item(s)
   * gallstones1 -> 0 item(s)
Choice Labels: 	none
-------------------------------------------------------------- 
Parameters: p49 p51 p52 p53 p50 p54 p56 p55 p57 p58 p60 p59 p61 p40 p42 p41 p43 p44 p46 p45 p47 p48 p62 p64 p66 p68 p63 p65 p67 p69 p70 p71 p72 p73 p74 p75 p22 p23 p24 p25 p26 p27 p28 p29 p30 p31 p0 p2 p4 p6 p1 p3 p5 p7 p35 p32 p33 p34 p36 p38 p37 p39 p76 p79 p82 p85 p77 p80 p83 p86 p78 p81 p84 p87 p10 p11 p13 p12 p14 p8 p9 p15 p16 p17 p18 p20 p19 p21 p88 p89 p90 p100 p101 p102 p94 p95 p96 p106 p107 p108 p91 p92 p93 p103 p104 p105 p97 p98 p99 p109 p110 p111 p112 p113 p114 p124 p125 p126 p118 p119 p120 p115 p116 p117 p127 p121 p122 p123 
Finding a feasible instantiation using Gradient Descent
Trying out a new starting point
Trying initial guess (p->0.5 for every parameter p or set start point)
Satisfied the bound! Done!
Aborting because the bound is satisfied
Found value 0.8354607223 at instantiation 
p49=4503608634569751/9007199254740992,p51=4503608634569751/9007199254740992,p52=4503608634569751/9007199254740992,p53=4503608634569751/9007199254740992,p50=4503608634569751/9007199254740992,p54=4503608634569751/9007199254740992,p56=4503608634569751/9007199254740992,p55=4503608634569751/9007199254740992,p57=4503608634569751/9007199254740992,p58=4503608634569751/9007199254740992,p60=4503608634569751/9007199254740992,p59=4503608634569751/9007199254740992,p61=4503608634569751/9007199254740992,p40=4503608634569751/9007199254740992,p42=4503608634569751/9007199254740992,p41=4503608634569751/9007199254740992,p43=4503608634569751/9007199254740992,p44=4503608634569751/9007199254740992,p46=4503608634569751/9007199254740992,p45=4503608634569751/9007199254740992,p47=4503608634569751/9007199254740992,p48=4503608634569751/9007199254740992,p62=4503608634569751/9007199254740992,p64=4503608634569751/9007199254740992,p66=4503608634569751/9007199254740992,p68=4503608634569751/9007199254740992,p63=4503608634569751/9007199254740992,p65=4503608634569751/9007199254740992,p67=4503608634569751/9007199254740992,p69=4503608634569751/9007199254740992,p70=4503608634569751/9007199254740992,p71=4503608634569751/9007199254740992,p72=4503608634569751/9007199254740992,p73=4503608634569751/9007199254740992,p74=4503608634569751/9007199254740992,p75=4503608634569751/9007199254740992,p22=4503608634569751/9007199254740992,p23=4503608634569751/9007199254740992,p24=4503608634569751/9007199254740992,p25=4503608634569751/9007199254740992,p26=4503608634569751/9007199254740992,p27=4503608634569751/9007199254740992,p28=4503608634569751/9007199254740992,p29=4503608634569751/9007199254740992,p30=4503608634569751/9007199254740992,p31=4503608634569751/9007199254740992,p0=4503608634569751/9007199254740992,p2=4503608634569751/9007199254740992,p4=4503608634569751/9007199254740992,p6=4503608634569751/9007199254740992,p1=4503608634569751/9007199254740992,p3=4503608634569751/9007199254740992,p5=4503608634569751/9007199254740992,p7=4503608634569751/9007199254740992,p35=4503608634569751/9007199254740992,p32=4503608634569751/9007199254740992,p33=4503608634569751/9007199254740992,p34=4503608634569751/9007199254740992,p36=4503608634569751/9007199254740992,p38=4503608634569751/9007199254740992,p37=4503608634569751/9007199254740992,p39=4503608634569751/9007199254740992,p76=4503608634569751/9007199254740992,p79=4503608634569751/9007199254740992,p82=4503608634569751/9007199254740992,p85=4503608634569751/9007199254740992,p77=4503608634569751/9007199254740992,p80=4503608634569751/9007199254740992,p83=4503608634569751/9007199254740992,p86=4503608634569751/9007199254740992,p78=4503608634569751/9007199254740992,p81=4503608634569751/9007199254740992,p84=4503608634569751/9007199254740992,p87=4503608634569751/9007199254740992,p10=4503608634569751/9007199254740992,p11=4503608634569751/9007199254740992,p13=4503608634569751/9007199254740992,p12=4503608634569751/9007199254740992,p14=4503608634569751/9007199254740992,p8=4503608634569751/9007199254740992,p9=4503608634569751/9007199254740992,p15=4503608634569751/9007199254740992,p16=4503608634569751/9007199254740992,p17=4503608634569751/9007199254740992,p18=4503608634569751/9007199254740992,p20=4503608634569751/9007199254740992,p19=4503608634569751/9007199254740992,p21=4503608634569751/9007199254740992,p88=4503608634569751/9007199254740992,p89=4503608634569751/9007199254740992,p90=4503608634569751/9007199254740992,p100=4503608634569751/9007199254740992,p101=4503608634569751/9007199254740992,p102=4503608634569751/9007199254740992,p94=4503608634569751/9007199254740992,p95=4503608634569751/9007199254740992,p96=4503608634569751/9007199254740992,p106=4503608634569751/9007199254740992,p107=4503608634569751/9007199254740992,p108=4503608634569751/9007199254740992,p91=4503608634569751/9007199254740992,p92=4503608634569751/9007199254740992,p93=4503608634569751/9007199254740992,p103=4503608634569751/9007199254740992,p104=4503608634569751/9007199254740992,p105=4503608634569751/9007199254740992,p97=4503608634569751/9007199254740992,p98=4503608634569751/9007199254740992,p99=4503608634569751/9007199254740992,p109=4503608634569751/9007199254740992,p110=4503608634569751/9007199254740992,p111=4503608634569751/9007199254740992,p112=4503608634569751/9007199254740992,p113=4503608634569751/9007199254740992,p114=4503608634569751/9007199254740992,p124=4503608634569751/9007199254740992,p125=4503608634569751/9007199254740992,p126=4503608634569751/9007199254740992,p118=4503608634569751/9007199254740992,p119=4503608634569751/9007199254740992,p120=4503608634569751/9007199254740992,p115=4503608634569751/9007199254740992,p116=4503608634569751/9007199254740992,p117=4503608634569751/9007199254740992,p127=4503608634569751/9007199254740992,p121=4503608634569751/9007199254740992,p122=4503608634569751/9007199254740992,p123=4503608634569751/9007199254740992
Finished in 0.054s
