{}
DTMC
Set parameter WLSAccessID
Set parameter WLSSecret
Set parameter LicenseID
Academic license - for non-commercial use only - registered to hans.vrapi@rwth-aachen.de
Solving...
Academic license - for non-commercial use only - registered to hans.vrapi@rwth-aachen.de
Solving...
Academic license - for non-commercial use only - registered to hans.vrapi@rwth-aachen.de
Qcqp: 0.9987052385394846: Mc: 0.9987052385394849
iterations =1
solver time=0.0021753311157226562
encoding time=0.05061769485473633
iterate time=0.0
inner part = 0.0s (0.0)
adding constraints = 0.0s
Point found: {p0:5902958103587057/590295810358705651712;p2:5902958103587057/590295810358705651712;p4:5902958103587057/590295810358705651712;p6:5902958103587057/590295810358705651712;p1:5902958103587057/590295810358705651712;p3:5902958103587057/590295810358705651712;p5:5902958103587057/590295810358705651712;p7:5902958103587057/590295810358705651712}: 8995537080278773/9007199254740992 (approx. 0.9987052385394849)
This procedure took 1.8985412120819092s (from start: 1.9039433002471924s)
Warning: environment still referenced so free is deferred (Continue to use WLS)
