Storm-pars 1.6.4 (dev)

Date: Thu May 12 10:46:45 2022
Command line arguments: --explicit-drn pso-qcqp-gd-benchmarks/sachs/drn_files/sachs_64.drn --prop 'Pmin<=0.050000 [F("Akt1"|"Jnk1"|"P381"|"PIP21")]
' --find-feasible
Current working directory: /home/hans/Desktop/feasibility-JAIR

Time for model construction: 0.021s.

-------------------------------------------------------------- 
Model type: 	DTMC (sparse)
States: 	130
Transitions: 	384
Reward Models:  none
State Labels: 	35 labels
   * Akt1 -> 1 item(s)
   * deadlock -> 3 item(s)
   * Akt0 -> 1 item(s)
   * Erk2 -> 3 item(s)
   * Erk1 -> 3 item(s)
   * Plcg2 -> 1 item(s)
   * Mek1 -> 3 item(s)
   * PIP30 -> 3 item(s)
   * PIP22 -> 1 item(s)
   * PIP21 -> 1 item(s)
   * PKA1 -> 3 item(s)
   * P381 -> 9 item(s)
   * PIP31 -> 3 item(s)
   * PKC2 -> 1 item(s)
   * Akt2 -> 1 item(s)
   * init -> 1 item(s)
   * PKC0 -> 1 item(s)
   * Jnk2 -> 9 item(s)
   * PKC1 -> 1 item(s)
   * PIP20 -> 1 item(s)
   * PKA0 -> 3 item(s)
   * Plcg0 -> 1 item(s)
   * PKA2 -> 3 item(s)
   * Mek0 -> 3 item(s)
   * Erk0 -> 3 item(s)
   * Jnk0 -> 9 item(s)
   * P382 -> 9 item(s)
   * Plcg1 -> 1 item(s)
   * P380 -> 9 item(s)
   * Jnk1 -> 9 item(s)
   * Raf0 -> 9 item(s)
   * Raf1 -> 9 item(s)
   * Raf2 -> 9 item(s)
   * PIP32 -> 3 item(s)
   * Mek2 -> 3 item(s)
Choice Labels: 	none
-------------------------------------------------------------- 

Time for model simplification: 0.001s.

-------------------------------------------------------------- 
Model type: 	DTMC (sparse)
States: 	76
Transitions: 	237
Reward Models:  none
State Labels: 	36 labels
   * Plcg1 -> 1 item(s)
   * P382 -> 0 item(s)
   * Jnk1 -> 1 item(s)
   * P380 -> 0 item(s)
   * PKA0 -> 3 item(s)
   * PIP20 -> 1 item(s)
   * PIP31 -> 3 item(s)
   * Erk0 -> 3 item(s)
   * Mek0 -> 3 item(s)
   * PKA2 -> 3 item(s)
   * Plcg0 -> 1 item(s)
   * Plcg2 -> 1 item(s)
   * Raf0 -> 4 item(s)
   * Raf1 -> 4 item(s)
   * Raf2 -> 3 item(s)
   * Erk1 -> 3 item(s)
   * Jnk0 -> 9 item(s)
   * target -> 1 item(s)
   * PKC2 -> 1 item(s)
   * deadlock -> 2 item(s)
   * PIP30 -> 3 item(s)
   * PIP22 -> 1 item(s)
   * PIP21 -> 1 item(s)
   * Akt1 -> 1 item(s)
   * Erk2 -> 3 item(s)
   * init -> 1 item(s)
   * Akt2 -> 1 item(s)
   * Mek1 -> 3 item(s)
   * Akt0 -> 1 item(s)
   * Jnk2 -> 9 item(s)
   * PKC0 -> 1 item(s)
   * P381 -> 1 item(s)
   * Mek2 -> 3 item(s)
   * PIP32 -> 3 item(s)
   * PKA1 -> 3 item(s)
   * PKC1 -> 1 item(s)
Choice Labels: 	none
-------------------------------------------------------------- 

Time for model preprocessing: 0.001s.

-------------------------------------------------------------- 
Model type: 	DTMC (sparse)
States: 	76
Transitions: 	237
Reward Models:  none
State Labels: 	36 labels
   * Plcg1 -> 1 item(s)
   * P382 -> 0 item(s)
   * Jnk1 -> 1 item(s)
   * P380 -> 0 item(s)
   * PKA0 -> 3 item(s)
   * PIP20 -> 1 item(s)
   * PIP31 -> 3 item(s)
   * Erk0 -> 3 item(s)
   * Mek0 -> 3 item(s)
   * PKA2 -> 3 item(s)
   * Plcg0 -> 1 item(s)
   * Plcg2 -> 1 item(s)
   * Raf0 -> 4 item(s)
   * Raf1 -> 4 item(s)
   * Raf2 -> 3 item(s)
   * Erk1 -> 3 item(s)
   * Jnk0 -> 9 item(s)
   * target -> 1 item(s)
   * PKC2 -> 1 item(s)
   * deadlock -> 2 item(s)
   * PIP30 -> 3 item(s)
   * PIP22 -> 1 item(s)
   * PIP21 -> 1 item(s)
   * Akt1 -> 1 item(s)
   * Erk2 -> 3 item(s)
   * init -> 1 item(s)
   * Akt2 -> 1 item(s)
   * Mek1 -> 3 item(s)
   * Akt0 -> 1 item(s)
   * Jnk2 -> 9 item(s)
   * PKC0 -> 1 item(s)
   * P381 -> 1 item(s)
   * Mek2 -> 3 item(s)
   * PIP32 -> 3 item(s)
   * PKA1 -> 3 item(s)
   * PKC1 -> 1 item(s)
Choice Labels: 	none
-------------------------------------------------------------- 
Parameters: p36 p37 p38 p39 p27 p30 p33 p28 p31 p34 p29 p32 p35 p40 p41 p42 p43 p9 p12 p15 p10 p13 p16 p11 p14 p17 p18 p21 p24 p19 p22 p25 p20 p23 p26 p53 p54 p55 p62 p63 p56 p57 p58 p59 p60 p61 p44 p47 p50 p45 p48 p51 p46 p49 p52 p0 p3 p6 p1 p4 p7 p2 p5 p8 
Finding a feasible instantiation using Gradient Descent
Trying out a new starting point
Trying initial guess (p->0.5 for every parameter p or set start point)
Satisfied the bound! Done!
Aborting because the bound is satisfied
Found value 0.00870826178 at instantiation 
p36=466388157903729793/1152921504606846976,p37=8603073186641495/18014398509481984,p38=7122546496983152781/18446744073709551616,p39=3480501614956923397/9223372036854775808,p27=4722366482869645/4722366482869645213696,p30=4722366482869645/4722366482869645213696,p33=4722366482869645/4722366482869645213696,p28=4722366482869645/4722366482869645213696,p31=4722366482869645/4722366482869645213696,p34=4722366482869645/4722366482869645213696,p29=4722366482869645/4722366482869645213696,p32=4722366482869645/4722366482869645213696,p35=4722366482869645/4722366482869645213696,p40=750682680934953847/1152921504606846976,p41=1160576205138900667/2305843009213693952,p42=290862484633528631/576460752303423488,p43=638546023128310455907/1180591620717411303424,p9=4722366482869645/4722366482869645213696,p12=4722366482869645/4722366482869645213696,p15=4722366482869645/4722366482869645213696,p10=4722366482869645/4722366482869645213696,p13=4722366482869645/4722366482869645213696,p16=4722366482869645/4722366482869645213696,p11=4722366482869645/4722366482869645213696,p14=4722366482869645/4722366482869645213696,p17=4722366482869645/4722366482869645213696,p18=4722366482869645/4722366482869645213696,p21=4722366482869645/4722366482869645213696,p24=4722366482869645/4722366482869645213696,p19=4722366482869645/4722366482869645213696,p22=4722366482869645/4722366482869645213696,p25=4722366482869645/4722366482869645213696,p20=29518028541151/72057594037927936,p23=145444149052087/72057594037927936,p26=28831106337945/72057594037927936,p53=1453960213690390060784413950981/2535301200456458802993406410752,p54=935699027206095903697452149317/2535301200456458802993406410752,p55=185488409902110557160796544289/633825300114114700748351602688,p62=272996684771409322469/590295810358705651712,p63=142837911709204245771635/302231454903657293676544,p56=3523786364227502828047007166817/5070602400912917605986812821504,p57=13067470992158046038127/18889465931478580854784,p58=215969455025194524628289348639/316912650057057350374175801344,p59=3011529063216705638584121543933/5070602400912917605986812821504,p60=278915465037312985277/590295810358705651712,p61=75383090380407659149899/151115727451828646838272,p44=42291192410416534814266558329/79228162514264337593543950336,p47=15286050177867777219764706507/39614081257132168796771975168,p50=185875648129033031367456712519/633825300114114700748351602688,p45=8764667118273765430606651831/19807040628566084398385987584,p48=144400012860510758375168186321/316912650057057350374175801344,p51=18897523804557881563191/37778931862957161709568,p46=14503677485081323258511168021/39614081257132168796771975168,p49=29327563479748786365877/75557863725914323419136,p52=74535377146750880070891/151115727451828646838272,p0=414552505329905/36028797018963968,p3=484370915056115/36028797018963968,p6=766116517038909/72057594037927936,p1=568463786621013/72057594037927936,p4=313663357199789/72057594037927936,p7=143861804524385/18014398509481984,p2=606026752462211/72057594037927936,p5=539146728444117/72057594037927936,p8=600465926967753/72057594037927936
Finished in 0.077s
