net 
{ 
}
node N0_7muVerMo 
{
  states = ( "StrongUp" "WeakUp" "Neutral" "Down" );
}
node SubjVertMo 
{
  states = ( "StronUp" "WeakUp" "Neutral" "Down" );
}
node QGVertMotion 
{
  states = ( "StrongUp" "WeakUp" "Neutral" "Down" );
}
node CombVerMo 
{
  states = ( "StrongUp" "WeakUp" "Neutral" "Down" );
}
node AreaMeso_ALS 
{
  states = ( "StrongUp" "WeakUp" "Neutral" "Down" );
}
node SatContMoist 
{
  states = ( "VeryWet" "Wet" "Neutral" "Dry" );
}
node RaoContMoist 
{
  states = ( "VeryWet" "Wet" "Neutral" "Dry" );
}
node CombMoisture 
{
  states = ( "VeryWet" "Wet" "Neutral" "Dry" );
}
node AreaMoDryAir 
{
  states = ( "VeryWet" "Wet" "Neutral" "Dry" );
}
node VISCloudCov 
{
  states = ( "Cloudy" "PC" "Clear" );
}
node IRCloudCover 
{
  states = ( "Cloudy" "PC" "Clear" );
}
node CombClouds 
{
  states = ( "Cloudy" "PC" "Clear" );
}
node CldShadeOth 
{
  states = ( "Cloudy" "PC" "Clear" );
}
node AMInstabMt 
{
  states = ( "None" "Weak" "Strong" );
}
node InsInMt 
{
  states = ( "None" "Weak" "Strong" );
}
node WndHodograph 
{
  states = ( "DCVZFavor" "StrongWest" "Westerly" "Other" );
}
node OutflowFrMt 
{
  states = ( "None" "Weak" "Strong" );
}
node MorningBound 
{
  states = ( "None" "Weak" "Strong" );
}
node Boundaries 
{
  states = ( "None" "Weak" "Strong" );
}
node CldShadeConv 
{
  states = ( "None" "Some" "Marked" );
}
node CompPlFcst 
{
  states = ( "IncCapDecIns" "LittleChange" "DecCapIncIns" );
}
node CapChange 
{
  states = ( "Decreasing" "LittleChange" "Increasing" );
}
node LoLevMoistAd 
{
  states = ( "StrongPos" "WeakPos" "Neutral" "Negative" );
}
node InsChange 
{
  states = ( "Decreasing" "LittleChange" "Increasing" );
}
node MountainFcst 
{
  states = ( "XNIL" "SIG" "SVR" );
}
node Date 
{
  states = ( "May15_Jun14" "Jun15_Jul1" "Jul2_Jul15" "Jul16_Aug10" "Aug11_Aug20" "Aug20_Sep15" );
}
node Scenario 
{
  states = ( "A" "B" "C" "D" "E" "F" "G" "H" "I" "J" "K" );
}
node ScenRelAMCIN 
{
  states = ( "AB" "CThruK" );
}
node MorningCIN 
{
  states = ( "None" "PartInhibit" "Stifling" "TotalInhibit" );
}
node AMCINInScen 
{
  states = ( "LessThanAve" "Average" "MoreThanAve" );
}
node CapInScen 
{
  states = ( "LessThanAve" "Average" "MoreThanAve" );
}
node ScenRelAMIns 
{
  states = ( "ABI" "CDEJ" "F" "G" "H" "K" );
}
node LIfr12ZDENSd 
{
  states = ( "LIGt0" "N1GtLIGt_4" "N5GtLIGt_8" "LILt_8" );
}
node AMDewptCalPl 
{
  states = ( "Instability" "Neutral" "Stability" );
}
node AMInsWliScen 
{
  states = ( "LessUnstable" "Average" "MoreUnstable" );
}
node InsSclInScen 
{
  states = ( "LessUnstable" "Average" "MoreUnstable" );
}
node ScenRel3_4 
{
  states = ( "ACEFK" "B" "D" "GJ" "HI" );
}
node LatestCIN 
{
  states = ( "None" "PartInhibit" "Stifling" "TotalInhibit" );
}
node LLIW 
{
  states = ( "Unfavorable" "Weak" "Moderate" "Strong" );
}
node CurPropConv 
{
  states = ( "None" "Slight" "Moderate" "Strong" );
}
node ScnRelPlFcst 
{
  states = ( "A" "B" "C" "D" "E" "F" "G" "H" "I" "J" "K" );
}
node PlainsFcst 
{
  states = ( "XNIL" "SIG" "SVR" );
}
node N34StarFcst 
{
  states = ( "XNIL" "SIG" "SVR" );
}
node R5Fcst 
{
  states = ( "XNIL" "SIG" "SVR" );
}
node Dewpoints 
{
  states = ( "LowEvrywhere" "LowAtStation" "LowSHighN" "LowNHighS" "LowMtsHighPl" "HighEvrywher" "Other" );
}
node LowLLapse 
{
  states = ( "CloseToDryAd" "Steep" "ModerateOrLe" "Stable" );
}
node MeanRH 
{
  states = ( "VeryMoist" "Average" "Dry" );
}
node MidLLapse 
{
  states = ( "CloseToDryAd" "Steep" "ModerateOrLe" );
}
node MvmtFeatures 
{
  states = ( "StrongFront" "MarkedUpper" "OtherRapid" "NoMajor" );
}
node RHRatio 
{
  states = ( "MoistMDryL" "DryMMoistL" "Other" );
}
node SfcWndShfDis 
{
  states = ( "DenvCyclone" "E_W_N" "E_W_S" "MovingFtorOt" "DryLine" "None" "Other" );
}
node SynForcng 
{
  states = ( "SigNegative" "NegToPos" "SigPositive" "PosToNeg" "LittleChange" );
}
node TempDis 
{
  states = ( "QStationary" "Moving" "None" "Other" );
}
node WindAloft 
{
  states = ( "LV" "SWQuad" "NWQuad" "AllElse" );
}
node WindFieldMt 
{
  states = ( "Westerly" "LVorOther" );
}
node WindFieldPln 
{
  states = ( "LV" "DenvCyclone" "LongAnticyc" "E_NE" "SEQuad" "WidespdDnsl" );
}
node SatContMoist_Wet_AMInstabMt_None_R5Fcst_SIG_Dewpoints_LowAtStation
{
  states = ( "True" "False" );
}
potential ( N0_7muVerMo ) 
{
  data = ( 0.25 0.25 0.25 0.25 );
}
potential ( SubjVertMo ) 
{
  data = ( 0.15 0.15 0.50 0.20 );
}
potential ( QGVertMotion ) 
{
  data = ( 0.15 0.15 0.50 0.20 );
}
potential ( CombVerMo | N0_7muVerMo SubjVertMo QGVertMotion ) 
{
  data = ((((1.0 0.0 0.0 0.0)(0.9 0.1 0.0 0.0)(0.7 0.2 0.1 0.0)(0.2 0.5 0.2 0.1))((0.9 0.1 0.0 0.0)(0.7 0.3 0.0 0.0)(0.15 0.70 0.15 0.00)(0.10 0.35 0.45 0.10))((0.7 0.2 0.1 0.0)(0.15 0.70 0.15 0.00)(0.2 0.6 0.2 0.0)(0.1 0.2 0.6 0.1))((0.2 0.5 0.2 0.1)(0.10 0.35 0.45 0.10)(0.1 0.2 0.6 0.1)(0.1 0.1 0.2 0.6)))(((0.9 0.1 0.0 0.0)(0.7 0.3 0.0 0.0)(0.15 0.70 0.15 0.00)(0.10 0.35 0.45 0.10))((0.7 0.3 0.0 0.0)(0.0 1.0 0.0 0.0)(0.0 0.7 0.3 0.0)(0.0 0.2 0.7 0.1))((0.15 0.70 0.15 0.00)(0.0 0.7 0.3 0.0)(0.0 0.3 0.7 0.0)(0.00 0.15 0.50 0.35))((0.10 0.35 0.45 0.10)(0.0 0.2 0.7 0.1)(0.00 0.15 0.50 0.35)(0.0 0.1 0.2 0.7)))(((0.7 0.2 0.1 0.0)(0.15 0.70 0.15 0.00)(0.2 0.6 0.2 0.0)(0.1 0.2 0.6 0.1))((0.15 0.70 0.15 0.00)(0.0 0.7 0.3 0.0)(0.0 0.3 0.7 0.0)(0.00 0.15 0.50 0.35))((0.2 0.6 0.2 0.0)(0.0 0.3 0.7 0.0)(0.0 0.0 1.0 0.0)(0.0 0.0 0.7 0.3))((0.1 0.2 0.6 0.1)(0.00 0.15 0.50 0.35)(0.0 0.0 0.7 0.3)(0.0 0.0 0.3 0.7)))(((0.2 0.5 0.2 0.1)(0.10 0.35 0.45 0.10)(0.1 0.2 0.6 0.1)(0.1 0.1 0.2 0.6))((0.10 0.35 0.45 0.10)(0.0 0.2 0.7 0.1)(0.00 0.15 0.50 0.35)(0.0 0.1 0.2 0.7))((0.1 0.2 0.6 0.1)(0.00 0.15 0.50 0.35)(0.0 0.0 0.7 0.3)(0.0 0.0 0.3 0.7))((0.1 0.1 0.2 0.6)(0.0 0.1 0.2 0.7)(0.0 0.0 0.3 0.7)(0.0 0.0 0.0 1.0)))) ;
}
potential ( AreaMeso_ALS | CombVerMo ) 
{
  data = ((1.0 0.0 0.0 0.0)(0.0 1.0 0.0 0.0)(0.0 0.0 1.0 0.0)(0.0 0.0 0.0 1.0)) ;
}
potential ( SatContMoist ) 
{
  data = ( 0.15 0.20 0.40 0.25 );
}
potential ( RaoContMoist ) 
{
  data = ( 0.15 0.20 0.40 0.25 );
}
potential ( CombMoisture | SatContMoist RaoContMoist ) 
{
  data = (((0.9 0.1 0.0 0.0)(0.60 0.35 0.05 0.00)(0.3 0.5 0.2 0.0)(0.25 0.35 0.25 0.15))((0.55 0.40 0.05 0.00)(0.15 0.60 0.20 0.05)(0.05 0.40 0.45 0.10)(0.1 0.3 0.3 0.3))((0.25 0.30 0.35 0.10)(0.10 0.35 0.50 0.05)(0.00 0.15 0.70 0.15)(0.0 0.1 0.4 0.5))((0.25 0.25 0.25 0.25)(0.25 0.25 0.25 0.25)(0.25 0.25 0.25 0.25)(0.25 0.25 0.25 0.25))) ;
}
potential ( AreaMoDryAir | AreaMeso_ALS CombMoisture ) 
{
  data = (((0.99 0.01 0.00 0.00)(0.70 0.29 0.01 0.00)(0.20 0.55 0.24 0.01)(0.00 0.25 0.55 0.20))((0.8 0.2 0.0 0.0)(0.35 0.55 0.10 0.00)(0.01 0.39 0.55 0.05)(0.00 0.02 0.43 0.55))((0.70 0.29 0.01 0.00)(0.2 0.6 0.2 0.0)(0.01 0.09 0.80 0.10)(0.0 0.0 0.3 0.7))((0.20 0.74 0.06 0.00)(0.05 0.40 0.45 0.10)(0.00 0.05 0.50 0.45)(0.00 0.00 0.01 0.99))) ;
}
potential ( VISCloudCov ) 
{
  data = ( 0.1 0.5 0.4 );
}
potential ( IRCloudCover ) 
{
  data = ( 0.15 0.45 0.40 );
}
potential ( CombClouds | VISCloudCov IRCloudCover ) 
{
  data = (((0.95 0.04 0.01)(0.85 0.13 0.02)(0.8 0.1 0.1))((0.45 0.52 0.03)(0.1 0.8 0.1)(0.05 0.45 0.50))((0.1 0.4 0.5)(0.02 0.28 0.70)(0.00 0.02 0.98))) ;
}
potential ( CldShadeOth | AreaMoDryAir AreaMeso_ALS CombClouds ) 
{
  data = ((((1.0 0.0 0.0)(0.85 0.15 0.00)(0.25 0.35 0.40))((0.95 0.05 0.00)(0.40 0.55 0.05)(0.05 0.45 0.50))((0.93 0.07 0.00)(0.20 0.78 0.02)(0.01 0.29 0.70))((0.74 0.25 0.01)(0.0 0.5 0.5)(0.0 0.1 0.9)))(((0.92 0.08 0.00)(0.70 0.29 0.01)(0.15 0.40 0.45))((0.90 0.09 0.01)(0.25 0.60 0.15)(0.01 0.30 0.69))((0.8 0.2 0.0)(0.01 0.89 0.10)(0.0 0.1 0.9))((0.65 0.34 0.01)(0.0 0.4 0.6)(0.00 0.02 0.98)))(((0.88 0.12 0.00)(0.4 0.5 0.1)(0.1 0.4 0.5))((0.85 0.15 0.00)(0.15 0.75 0.10)(0.0 0.2 0.8))((0.80 0.18 0.02)(0.03 0.85 0.12)(0.00 0.05 0.95))((0.50 0.48 0.02)(0.01 0.74 0.25)(0.00 0.01 0.99)))(((0.85 0.14 0.01)(0.55 0.43 0.02)(0.10 0.25 0.65))((0.60 0.39 0.01)(0.01 0.90 0.09)(0.00 0.15 0.85))((0.78 0.20 0.02)(0.01 0.74 0.25)(0.00 0.04 0.96))((0.42 0.55 0.03)(0.05 0.65 0.30)(0.0 0.0 1.0)))) ;
}
potential ( AMInstabMt ) 
{
  data = ( 0.333333 0.333333 0.333334 );
}
potential ( InsInMt | CldShadeOth AMInstabMt ) 
{
  data = (((0.9 0.1 0.0)(0.01 0.40 0.59)(0.00 0.05 0.95))((0.60 0.39 0.01)(0.0 0.4 0.6)(0.0 0.0 1.0))((0.50 0.35 0.15)(0.00 0.15 0.85)(0.0 0.0 1.0))) ;
}
potential ( WndHodograph ) 
{
  data = ( 0.30 0.25 0.25 0.20 );
}
potential ( OutflowFrMt | InsInMt WndHodograph ) 
{
  data = (((1.0 0.0 0.0)(1.0 0.0 0.0)(1.0 0.0 0.0)(1.0 0.0 0.0))((0.5 0.4 0.1)(0.15 0.40 0.45)(0.35 0.60 0.05)(0.80 0.19 0.01))((0.05 0.45 0.50)(0.01 0.15 0.84)(0.10 0.25 0.65)(0.6 0.3 0.1))) ;
}
potential ( MorningBound ) 
{
  data = ( 0.50 0.35 0.15 );
}
potential ( Boundaries | OutflowFrMt WndHodograph MorningBound ) 
{
  data = ((((0.50 0.48 0.02)(0.3 0.5 0.2)(0.10 0.25 0.65))((0.75 0.22 0.03)(0.45 0.45 0.10)(0.25 0.40 0.35))((0.80 0.18 0.02)(0.35 0.50 0.15)(0.25 0.35 0.40))((0.70 0.28 0.02)(0.25 0.60 0.15)(0.05 0.35 0.60)))(((0.30 0.63 0.07)(0.1 0.5 0.4)(0.05 0.20 0.75))((0.15 0.70 0.15)(0.10 0.75 0.15)(0.05 0.50 0.45))((0.15 0.70 0.15)(0.05 0.80 0.15)(0.05 0.45 0.50))((0.40 0.55 0.05)(0.20 0.65 0.15)(0.05 0.30 0.65)))(((0.00 0.55 0.45)(0.0 0.4 0.6)(0.00 0.15 0.85))((0.0 0.5 0.5)(0.0 0.4 0.6)(0.0 0.2 0.8))((0.0 0.7 0.3)(0.0 0.5 0.5)(0.0 0.2 0.8))((0.02 0.73 0.25)(0.01 0.50 0.49)(0.01 0.20 0.79)))) ;
}
potential ( CldShadeConv | InsInMt WndHodograph ) 
{
  data = (((1.0 0.0 0.0)(1.0 0.0 0.0)(1.0 0.0 0.0)(1.0 0.0 0.0))((0.3 0.6 0.1)(0.2 0.7 0.1)(0.50 0.46 0.04)(0.80 0.19 0.01))((0.0 0.3 0.7)(0.0 0.2 0.8)(0.1 0.5 0.4)(0.50 0.38 0.12))) ;
}
potential ( CompPlFcst | Boundaries CldShadeConv AreaMeso_ALS CldShadeOth ) 
{
  data = (((((0.40 0.35 0.25)(0.10 0.35 0.55)(0.05 0.30 0.65))((0.60 0.25 0.15)(0.4 0.3 0.3)(0.2 0.5 0.3))((0.60 0.35 0.05)(0.45 0.40 0.15)(0.25 0.45 0.30))((0.70 0.27 0.03)(0.65 0.30 0.05)(0.60 0.35 0.05)))(((0.40 0.35 0.25)(0.25 0.30 0.45)(0.15 0.35 0.50))((0.65 0.25 0.10)(0.45 0.30 0.25)(0.25 0.50 0.25))((0.65 0.30 0.05)(0.5 0.4 0.1)(0.30 0.45 0.25))((0.75 0.23 0.02)(0.70 0.26 0.04)(0.65 0.32 0.03)))(((0.45 0.30 0.25)(0.4 0.3 0.3)(0.35 0.30 0.35))((0.70 0.22 0.08)(0.55 0.30 0.15)(0.40 0.45 0.15))((0.70 0.27 0.03)(0.6 0.3 0.1)(0.55 0.33 0.12))((0.85 0.14 0.01)(0.80 0.17 0.03)(0.75 0.23 0.02))))((((0.35 0.35 0.30)(0.05 0.35 0.60)(0.03 0.25 0.72))((0.50 0.25 0.25)(0.30 0.35 0.35)(0.15 0.45 0.40))((0.55 0.30 0.15)(0.4 0.4 0.2)(0.2 0.4 0.4))((0.60 0.35 0.05)(0.6 0.3 0.1)(0.55 0.33 0.12)))(((0.35 0.35 0.30)(0.10 0.35 0.55)(0.05 0.30 0.65))((0.55 0.25 0.20)(0.35 0.35 0.30)(0.2 0.5 0.3))((0.6 0.3 0.1)(0.45 0.40 0.15)(0.25 0.50 0.25))((0.65 0.30 0.05)(0.65 0.30 0.05)(0.60 0.35 0.05)))(((0.40 0.35 0.25)(0.25 0.40 0.35)(0.2 0.4 0.4))((0.65 0.25 0.10)(0.45 0.35 0.20)(0.3 0.5 0.2))((0.65 0.30 0.05)(0.55 0.30 0.15)(0.5 0.3 0.2))((0.78 0.18 0.04)(0.75 0.20 0.05)(0.70 0.25 0.05))))((((0.3 0.3 0.4)(0.01 0.25 0.74)(0.01 0.20 0.79))((0.35 0.25 0.40)(0.15 0.40 0.45)(0.10 0.35 0.55))((0.45 0.30 0.25)(0.3 0.4 0.3)(0.15 0.40 0.45))((0.50 0.35 0.15)(0.48 0.32 0.20)(0.45 0.35 0.20)))(((0.3 0.3 0.4)(0.05 0.60 0.35)(0.04 0.27 0.69))((0.40 0.25 0.35)(0.2 0.4 0.4)(0.12 0.43 0.45))((0.5 0.3 0.2)(0.35 0.40 0.25)(0.20 0.45 0.35))((0.55 0.35 0.10)(0.55 0.30 0.15)(0.5 0.4 0.1)))(((0.30 0.35 0.35)(0.15 0.35 0.50)(0.13 0.35 0.52))((0.50 0.25 0.25)(0.35 0.35 0.30)(0.20 0.45 0.35))((0.55 0.35 0.10)(0.45 0.35 0.20)(0.40 0.35 0.25))((0.70 0.24 0.06)(0.65 0.28 0.07)(0.6 0.3 0.1))))) ;
}
potential ( CapChange | CompPlFcst ) 
{
  data = ((0.0 0.0 1.0)(0.0 1.0 0.0)(1.0 0.0 0.0)) ;
}
potential ( LoLevMoistAd ) 
{
  data = ( 0.12 0.28 0.30 0.30 );
}
potential ( InsChange | LoLevMoistAd CompPlFcst ) 
{
  data = (((0.00 0.05 0.95)(0.00 0.12 0.88)(0.05 0.15 0.80))((0.05 0.15 0.80)(0.1 0.4 0.5)(0.25 0.50 0.25))((0.15 0.50 0.35)(0.2 0.6 0.2)(0.35 0.50 0.15))((0.5 0.4 0.1)(0.80 0.16 0.04)(0.90 0.09 0.01))) ;
}
potential ( MountainFcst | InsInMt ) 
{
  data = ((1.0 0.0 0.0)(0.48 0.50 0.02)(0.2 0.5 0.3)) ;
}
potential ( Date ) 
{
  data = ( 0.254098 0.131148 0.106557 0.213115 0.073770 0.221312 );
}
potential ( Scenario | Date ) 
{
  data = ((0.10 0.16 0.10 0.08 0.08 0.01 0.08 0.10 0.09 0.03 0.17)(0.05 0.16 0.09 0.09 0.12 0.02 0.13 0.06 0.07 0.11 0.10)(0.04 0.13 0.10 0.08 0.15 0.03 0.14 0.04 0.06 0.15 0.08)(0.04 0.13 0.09 0.07 0.20 0.08 0.06 0.05 0.07 0.13 0.08)(0.04 0.11 0.10 0.07 0.17 0.05 0.10 0.05 0.07 0.14 0.10)(0.05 0.11 0.10 0.08 0.11 0.02 0.11 0.06 0.08 0.11 0.17)) ;
}
potential ( ScenRelAMCIN | Scenario ) 
{
  data = ((1.0 0.0)(1.0 0.0)(0.0 1.0)(0.0 1.0)(0.0 1.0)(0.0 1.0)(0.0 1.0)(0.0 1.0)(0.0 1.0)(0.0 1.0)(0.0 1.0)) ;
}
potential ( MorningCIN ) 
{
  data = ( 0.15 0.57 0.20 0.08 );
}
potential ( AMCINInScen | ScenRelAMCIN MorningCIN ) 
{
  data = (((1.0 0.0 0.0)(0.60 0.37 0.03)(0.25 0.45 0.30)(0.0 0.1 0.9))((0.75 0.25 0.00)(0.3 0.6 0.1)(0.01 0.40 0.59)(0.00 0.03 0.97))) ;
}
potential ( CapInScen | AMCINInScen CapChange ) 
{
  data = (((1.0 0.0 0.0)(0.98 0.02 0.00)(0.35 0.35 0.30))((0.75 0.25 0.00)(0.03 0.94 0.03)(0.00 0.25 0.75))((0.30 0.35 0.35)(0.00 0.02 0.98)(0.0 0.0 1.0))) ;
}
potential ( ScenRelAMIns | Scenario ) 
{
  data = ((1.0 0.0 0.0 0.0 0.0 0.0)(1.0 0.0 0.0 0.0 0.0 0.0)(0.0 1.0 0.0 0.0 0.0 0.0)(0.0 1.0 0.0 0.0 0.0 0.0)(0.0 1.0 0.0 0.0 0.0 0.0)(0.0 0.0 1.0 0.0 0.0 0.0)(0.0 0.0 0.0 1.0 0.0 0.0)(0.0 0.0 0.0 0.0 1.0 0.0)(1.0 0.0 0.0 0.0 0.0 0.0)(0.0 1.0 0.0 0.0 0.0 0.0)(0.0 0.0 0.0 0.0 0.0 1.0)) ;
}
potential ( LIfr12ZDENSd ) 
{
  data = ( 0.10 0.52 0.30 0.08 );
}
potential ( AMDewptCalPl ) 
{
  data = ( 0.30 0.25 0.45 );
}
potential ( AMInsWliScen | ScenRelAMIns LIfr12ZDENSd AMDewptCalPl ) 
{
  data = ((((0.6 0.3 0.1)(0.85 0.13 0.02)(0.95 0.04 0.01))((0.3 0.3 0.4)(0.5 0.3 0.2)(0.75 0.20 0.05))((0.06 0.21 0.73)(0.2 0.4 0.4)(0.5 0.4 0.1))((0.01 0.04 0.95)(0.05 0.20 0.75)(0.35 0.35 0.30)))(((0.4 0.3 0.3)(0.7 0.2 0.1)(0.90 0.08 0.02))((0.15 0.30 0.55)(0.25 0.50 0.25)(0.6 0.3 0.1))((0.03 0.17 0.80)(0.2 0.3 0.5)(0.45 0.40 0.15))((0.01 0.04 0.95)(0.05 0.18 0.77)(0.25 0.40 0.35)))(((0.35 0.35 0.30)(0.55 0.40 0.05)(0.85 0.13 0.02))((0.07 0.38 0.55)(0.2 0.6 0.2)(0.50 0.43 0.07))((0.00 0.05 0.95)(0.05 0.35 0.60)(0.25 0.50 0.25))((0.00 0.02 0.98)(0.00 0.05 0.95)(0.04 0.16 0.80)))(((0.3 0.4 0.3)(0.5 0.3 0.2)(0.75 0.20 0.05))((0.15 0.35 0.50)(0.2 0.6 0.2)(0.15 0.70 0.15))((0.07 0.23 0.70)(0.13 0.47 0.40)(0.10 0.75 0.15))((0.02 0.18 0.80)(0.04 0.26 0.70)(0.07 0.30 0.63)))(((0.35 0.45 0.20)(0.4 0.5 0.1)(0.58 0.40 0.02))((0.10 0.25 0.65)(0.15 0.45 0.40)(0.40 0.45 0.15))((0.02 0.18 0.80)(0.05 0.25 0.70)(0.15 0.35 0.50))((0.01 0.09 0.90)(0.03 0.17 0.80)(0.08 0.32 0.60)))(((0.30 0.55 0.15)(0.4 0.5 0.1)(0.50 0.43 0.07))((0.10 0.35 0.55)(0.25 0.50 0.25)(0.3 0.5 0.2))((0.05 0.22 0.73)(0.10 0.35 0.55)(0.15 0.35 0.50))((0.02 0.10 0.88)(0.04 0.16 0.80)(0.10 0.25 0.65)))) ;
}
potential ( InsSclInScen | AMInsWliScen InsChange ) 
{
  data = (((1.0 0.0 0.0)(0.9 0.1 0.0)(0.40 0.35 0.25))((0.6 0.4 0.0)(0.15 0.70 0.15)(0.0 0.4 0.6))((0.25 0.35 0.40)(0.0 0.1 0.9)(0.0 0.0 1.0))) ;
}
potential ( ScenRel3_4 | Scenario ) 
{
  data = ((1.0 0.0 0.0 0.0 0.0)(0.0 1.0 0.0 0.0 0.0)(1.0 0.0 0.0 0.0 0.0)(0.0 0.0 1.0 0.0 0.0)(1.0 0.0 0.0 0.0 0.0)(1.0 0.0 0.0 0.0 0.0)(0.0 0.0 0.0 1.0 0.0)(0.0 0.0 0.0 0.0 1.0)(0.0 0.0 0.0 0.0 1.0)(0.0 0.0 0.0 1.0 0.0)(1.0 0.0 0.0 0.0 0.0)) ;
}
potential ( LatestCIN ) 
{
  data = ( 0.40 0.40 0.15 0.05 );
}
potential ( LLIW ) 
{
  data = ( 0.12 0.32 0.38 0.18 );
}
potential ( CurPropConv | LatestCIN LLIW ) 
{
  data = (((0.70 0.28 0.02 0.00)(0.1 0.5 0.3 0.1)(0.01 0.14 0.35 0.50)(0.00 0.02 0.18 0.80))((0.90 0.09 0.01 0.00)(0.65 0.25 0.09 0.01)(0.25 0.35 0.30 0.10)(0.01 0.15 0.33 0.51))((0.95 0.05 0.00 0.00)(0.75 0.23 0.02 0.00)(0.40 0.40 0.18 0.02)(0.20 0.30 0.35 0.15))((1.0 0.0 0.0 0.0)(0.95 0.05 0.00 0.00)(0.75 0.20 0.05 0.00)(0.50 0.35 0.10 0.05))) ;
}
potential ( ScnRelPlFcst | Scenario ) 
{
  data = ((1.0 0.0 0.0 0.0 0.0 0.0 0.0 0.0 0.0 0.0 0.0)(0.0 1.0 0.0 0.0 0.0 0.0 0.0 0.0 0.0 0.0 0.0)(0.0 0.0 1.0 0.0 0.0 0.0 0.0 0.0 0.0 0.0 0.0)(0.0 0.0 0.0 1.0 0.0 0.0 0.0 0.0 0.0 0.0 0.0)(0.0 0.0 0.0 0.0 1.0 0.0 0.0 0.0 0.0 0.0 0.0)(0.0 0.0 0.0 0.0 0.0 1.0 0.0 0.0 0.0 0.0 0.0)(0.0 0.0 0.0 0.0 0.0 0.0 1.0 0.0 0.0 0.0 0.0)(0.0 0.0 0.0 0.0 0.0 0.0 0.0 1.0 0.0 0.0 0.0)(0.0 0.0 0.0 0.0 0.0 0.0 0.0 0.0 1.0 0.0 0.0)(0.0 0.0 0.0 0.0 0.0 0.0 0.0 0.0 0.0 1.0 0.0)(0.0 0.0 0.0 0.0 0.0 0.0 0.0 0.0 0.0 0.0 1.0)) ;
}
potential ( PlainsFcst | CurPropConv InsSclInScen CapInScen ScnRelPlFcst ) 
{
  data = (((((0.75 0.20 0.05)(0.75 0.20 0.05)(0.90 0.08 0.02)(0.90 0.06 0.04)(0.88 0.10 0.02)(0.92 0.08 0.00)(0.85 0.13 0.02)(1.0 0.0 0.0)(0.90 0.08 0.02)(0.90 0.08 0.02)(0.95 0.04 0.01))((0.75 0.20 0.05)(0.65 0.30 0.05)(0.90 0.08 0.02)(0.91 0.05 0.04)(0.85 0.13 0.02)(0.9 0.1 0.0)(0.84 0.12 0.04)(0.99 0.01 0.00)(0.88 0.10 0.02)(0.92 0.06 0.02)(0.96 0.03 0.01))((0.75 0.20 0.05)(0.75 0.20 0.05)(0.95 0.04 0.01)(0.93 0.04 0.03)(0.92 0.06 0.02)(0.87 0.13 0.00)(0.90 0.06 0.04)(0.98 0.02 0.00)(0.92 0.06 0.02)(0.95 0.04 0.01)(0.97 0.02 0.01)))(((0.5 0.3 0.2)(0.6 0.3 0.1)(0.80 0.14 0.06)(0.85 0.09 0.06)(0.85 0.10 0.05)(0.88 0.11 0.01)(0.80 0.17 0.03)(0.92 0.06 0.02)(0.80 0.12 0.08)(0.75 0.22 0.03)(0.90 0.08 0.02))((0.35 0.30 0.35)(0.55 0.30 0.15)(0.82 0.13 0.05)(0.82 0.10 0.08)(0.75 0.18 0.07)(0.88 0.11 0.01)(0.75 0.20 0.05)(0.90 0.07 0.03)(0.7 0.2 0.1)(0.80 0.15 0.05)(0.90 0.08 0.02))((0.5 0.2 0.3)(0.60 0.25 0.15)(0.85 0.10 0.05)(0.85 0.07 0.08)(0.75 0.15 0.10)(0.85 0.14 0.01)(0.75 0.20 0.05)(0.94 0.05 0.01)(0.65 0.22 0.13)(0.83 0.10 0.07)(0.93 0.06 0.01)))(((0.35 0.20 0.45)(0.45 0.35 0.20)(0.8 0.1 0.1)(0.72 0.14 0.14)(0.78 0.15 0.07)(0.86 0.12 0.02)(0.65 0.25 0.10)(0.85 0.10 0.05)(0.65 0.20 0.15)(0.72 0.20 0.08)(0.85 0.10 0.05))((0.25 0.15 0.60)(0.45 0.35 0.20)(0.65 0.20 0.15)(0.55 0.20 0.25)(0.55 0.25 0.20)(0.81 0.17 0.02)(0.60 0.28 0.12)(0.80 0.13 0.07)(0.6 0.2 0.2)(0.75 0.15 0.10)(0.88 0.08 0.04))((0.40 0.08 0.52)(0.45 0.25 0.30)(0.75 0.10 0.15)(0.65 0.15 0.20)(0.52 0.25 0.23)(0.82 0.16 0.02)(0.65 0.27 0.08)(0.85 0.09 0.06)(0.5 0.2 0.3)(0.77 0.10 0.13)(0.90 0.07 0.03))))((((0.70 0.25 0.05)(0.60 0.33 0.07)(0.82 0.13 0.05)(0.85 0.10 0.05)(0.82 0.15 0.03)(0.85 0.14 0.01)(0.80 0.17 0.03)(0.97 0.02 0.01)(0.88 0.10 0.02)(0.86 0.10 0.04)(0.88 0.10 0.02))((0.65 0.25 0.10)(0.58 0.32 0.10)(0.80 0.15 0.05)(0.85 0.10 0.05)(0.80 0.16 0.04)(0.83 0.16 0.01)(0.77 0.17 0.06)(0.93 0.06 0.01)(0.85 0.12 0.03)(0.85 0.10 0.05)(0.90 0.08 0.02))((0.6 0.3 0.1)(0.65 0.28 0.07)(0.90 0.08 0.02)(0.85 0.10 0.05)(0.82 0.13 0.05)(0.80 0.19 0.01)(0.80 0.13 0.07)(0.91 0.08 0.01)(0.85 0.12 0.03)(0.90 0.08 0.02)(0.93 0.06 0.01)))(((0.3 0.4 0.3)(0.55 0.34 0.11)(0.7 0.2 0.1)(0.75 0.15 0.10)(0.62 0.28 0.10)(0.85 0.14 0.01)(0.75 0.20 0.05)(0.82 0.14 0.04)(0.60 0.25 0.15)(0.68 0.22 0.10)(0.82 0.15 0.03))((0.28 0.37 0.35)(0.48 0.35 0.17)(0.7 0.2 0.1)(0.70 0.17 0.13)(0.60 0.29 0.11)(0.82 0.16 0.02)(0.63 0.30 0.07)(0.80 0.15 0.05)(0.5 0.3 0.2)(0.7 0.2 0.1)(0.80 0.16 0.04))((0.40 0.28 0.32)(0.50 0.25 0.25)(0.72 0.18 0.10)(0.65 0.20 0.15)(0.55 0.30 0.15)(0.78 0.20 0.02)(0.55 0.35 0.10)(0.85 0.12 0.03)(0.45 0.30 0.25)(0.73 0.15 0.12)(0.85 0.12 0.03)))(((0.30 0.25 0.45)(0.40 0.36 0.24)(0.65 0.20 0.15)(0.6 0.2 0.2)(0.60 0.28 0.12)(0.83 0.14 0.03)(0.45 0.40 0.15)(0.70 0.18 0.12)(0.55 0.25 0.20)(0.60 0.25 0.15)(0.72 0.20 0.08))((0.22 0.17 0.61)(0.35 0.37 0.28)(0.45 0.30 0.25)(0.45 0.25 0.30)(0.48 0.29 0.23)(0.72 0.25 0.03)(0.43 0.40 0.17)(0.68 0.20 0.12)(0.35 0.30 0.35)(0.6 0.2 0.2)(0.74 0.16 0.10))((0.27 0.10 0.63)(0.35 0.30 0.35)(0.55 0.22 0.23)(0.45 0.25 0.30)(0.42 0.30 0.28)(0.74 0.22 0.04)(0.45 0.40 0.15)(0.77 0.13 0.10)(0.30 0.25 0.45)(0.68 0.15 0.17)(0.75 0.15 0.10))))((((0.5 0.4 0.1)(0.45 0.42 0.13)(0.75 0.18 0.07)(0.75 0.15 0.10)(0.72 0.22 0.06)(0.78 0.21 0.01)(0.66 0.27 0.07)(0.88 0.10 0.02)(0.70 0.22 0.08)(0.78 0.16 0.06)(0.80 0.16 0.04))((0.45 0.35 0.20)(0.45 0.35 0.20)(0.7 0.2 0.1)(0.72 0.17 0.11)(0.70 0.22 0.08)(0.75 0.24 0.01)(0.62 0.30 0.08)(0.85 0.12 0.03)(0.75 0.15 0.10)(0.76 0.17 0.07)(0.80 0.16 0.04))((0.35 0.40 0.25)(0.45 0.40 0.15)(0.75 0.19 0.06)(0.7 0.2 0.1)(0.6 0.3 0.1)(0.72 0.27 0.01)(0.6 0.3 0.1)(0.80 0.16 0.04)(0.75 0.17 0.08)(0.75 0.20 0.05)(0.88 0.10 0.02)))(((0.20 0.45 0.35)(0.4 0.4 0.2)(0.7 0.2 0.1)(0.65 0.22 0.13)(0.50 0.34 0.16)(0.74 0.24 0.02)(0.6 0.3 0.1)(0.67 0.24 0.09)(0.35 0.40 0.25)(0.60 0.25 0.15)(0.75 0.20 0.05))((0.23 0.40 0.37)(0.38 0.35 0.27)(0.58 0.25 0.17)(0.55 0.25 0.20)(0.53 0.32 0.15)(0.73 0.25 0.02)(0.35 0.53 0.12)(0.65 0.24 0.11)(0.3 0.4 0.3)(0.60 0.24 0.16)(0.68 0.24 0.08))((0.30 0.34 0.36)(0.35 0.35 0.30)(0.55 0.25 0.20)(0.50 0.27 0.23)(0.40 0.38 0.22)(0.70 0.28 0.02)(0.35 0.50 0.15)(0.60 0.25 0.15)(0.35 0.35 0.30)(0.62 0.22 0.16)(0.70 0.22 0.08)))(((0.25 0.28 0.47)(0.30 0.38 0.32)(0.45 0.30 0.25)(0.50 0.25 0.25)(0.40 0.35 0.25)(0.72 0.24 0.04)(0.25 0.57 0.18)(0.57 0.28 0.15)(0.25 0.35 0.40)(0.48 0.26 0.26)(0.60 0.26 0.14))((0.19 0.18 0.63)(0.25 0.40 0.35)(0.35 0.30 0.35)(0.35 0.30 0.35)(0.35 0.35 0.30)(0.65 0.30 0.05)(0.22 0.58 0.20)(0.45 0.35 0.20)(0.25 0.34 0.41)(0.48 0.26 0.26)(0.58 0.25 0.17))((0.15 0.16 0.69)(0.25 0.30 0.45)(0.4 0.3 0.3)(0.3 0.3 0.4)(0.25 0.40 0.35)(0.60 0.34 0.06)(0.18 0.62 0.20)(0.47 0.30 0.23)(0.25 0.30 0.45)(0.50 0.22 0.28)(0.50 0.27 0.23))))((((0.40 0.45 0.15)(0.35 0.45 0.20)(0.60 0.27 0.13)(0.60 0.22 0.18)(0.55 0.32 0.13)(0.69 0.29 0.02)(0.54 0.36 0.10)(0.75 0.20 0.05)(0.55 0.30 0.15)(0.70 0.22 0.08)(0.70 0.25 0.05))((0.35 0.40 0.25)(0.35 0.40 0.25)(0.55 0.30 0.15)(0.55 0.27 0.18)(0.50 0.35 0.15)(0.65 0.33 0.02)(0.38 0.50 0.12)(0.70 0.24 0.06)(0.65 0.20 0.15)(0.67 0.23 0.10)(0.70 0.25 0.05))((0.20 0.45 0.35)(0.30 0.45 0.25)(0.55 0.30 0.15)(0.5 0.3 0.2)(0.45 0.38 0.17)(0.60 0.38 0.02)(0.28 0.57 0.15)(0.65 0.28 0.07)(0.63 0.25 0.12)(0.62 0.28 0.10)(0.80 0.17 0.03)))(((0.16 0.47 0.37)(0.30 0.45 0.25)(0.45 0.32 0.23)(0.52 0.26 0.22)(0.35 0.45 0.20)(0.65 0.32 0.03)(0.48 0.39 0.13)(0.58 0.30 0.12)(0.25 0.45 0.30)(0.50 0.28 0.22)(0.65 0.27 0.08))((0.18 0.45 0.37)(0.30 0.35 0.35)(0.45 0.30 0.25)(0.45 0.30 0.25)(0.35 0.43 0.22)(0.62 0.35 0.03)(0.20 0.65 0.15)(0.52 0.33 0.15)(0.23 0.42 0.35)(0.47 0.30 0.23)(0.55 0.30 0.15))((0.23 0.40 0.37)(0.25 0.40 0.35)(0.4 0.3 0.3)(0.4 0.3 0.3)(0.30 0.45 0.25)(0.57 0.40 0.03)(0.15 0.65 0.20)(0.50 0.33 0.17)(0.25 0.36 0.39)(0.50 0.28 0.22)(0.55 0.30 0.15)))(((0.18 0.30 0.52)(0.2 0.4 0.4)(0.3 0.3 0.4)(0.4 0.3 0.3)(0.25 0.48 0.27)(0.63 0.32 0.05)(0.15 0.63 0.22)(0.40 0.38 0.22)(0.20 0.37 0.43)(0.30 0.35 0.35)(0.50 0.32 0.18))((0.15 0.20 0.65)(0.18 0.40 0.42)(0.25 0.35 0.40)(0.25 0.35 0.40)(0.25 0.42 0.33)(0.58 0.36 0.06)(0.13 0.62 0.25)(0.30 0.45 0.25)(0.22 0.35 0.43)(0.35 0.32 0.33)(0.5 0.3 0.2))((0.1 0.2 0.7)(0.2 0.3 0.5)(0.2 0.4 0.4)(0.23 0.30 0.47)(0.15 0.45 0.40)(0.50 0.42 0.08)(0.10 0.65 0.25)(0.28 0.40 0.32)(0.20 0.32 0.48)(0.30 0.28 0.42)(0.38 0.32 0.30))))) ;
}
potential ( N34StarFcst | ScenRel3_4 PlainsFcst ) 
{
  data = (((0.94 0.05 0.01)(0.06 0.89 0.05)(0.01 0.05 0.94))((0.98 0.02 0.00)(0.04 0.94 0.02)(0.00 0.03 0.97))((0.92 0.06 0.02)(0.01 0.89 0.10)(0.00 0.01 0.99))((0.92 0.06 0.02)(0.03 0.92 0.05)(0.01 0.04 0.95))((0.99 0.01 0.00)(0.09 0.90 0.01)(0.03 0.12 0.85))) ;
}
potential ( R5Fcst | MountainFcst N34StarFcst ) 
{
  data = (((1.0 0.0 0.0)(0.0 1.0 0.0)(0.0 0.0 1.0))((0.0 1.0 0.0)(0.0 1.0 0.0)(0.0 0.0 1.0))((0.0 0.0 1.0)(0.0 0.0 1.0)(0.0 0.0 1.0))) ;
}
potential ( Dewpoints | Scenario ) 
{
  data = ((0.04 0.05 0.15 0.05 0.19 0.30 0.22)(0.05 0.07 0.15 0.10 0.30 0.27 0.06)(0.40 0.25 0.00 0.15 0.05 0.02 0.13)(0.13 0.22 0.18 0.07 0.34 0.03 0.03)(0.15 0.20 0.20 0.18 0.11 0.11 0.05)(0.00 0.00 0.00 0.00 0.00 0.98 0.02)(0.50 0.27 0.15 0.02 0.02 0.00 0.04)(0.00 0.02 0.10 0.05 0.50 0.20 0.13)(0.00 0.02 0.70 0.00 0.20 0.04 0.04)(0.10 0.45 0.10 0.05 0.26 0.02 0.02)(0.10 0.10 0.10 0.20 0.05 0.10 0.35)) ;
}
potential ( LowLLapse | Scenario ) 
{
  data = ((0.04 0.25 0.35 0.36)(0.07 0.31 0.31 0.31)(0.35 0.47 0.14 0.04)(0.40 0.40 0.13 0.07)(0.45 0.35 0.15 0.05)(0.01 0.35 0.45 0.19)(0.78 0.19 0.03 0.00)(0.00 0.02 0.33 0.65)(0.22 0.40 0.30 0.08)(0.13 0.40 0.35 0.12)(0.09 0.40 0.33 0.18)) ;
}
potential ( MeanRH | Scenario ) 
{
  data = ((0.33 0.50 0.17)(0.4 0.4 0.2)(0.05 0.45 0.50)(0.1 0.5 0.4)(0.05 0.65 0.30)(1.0 0.0 0.0)(0.00 0.07 0.93)(0.40 0.55 0.05)(0.20 0.45 0.35)(0.05 0.55 0.40)(0.2 0.4 0.4)) ;
}
potential ( MidLLapse | Scenario ) 
{
  data = ((0.25 0.55 0.20)(0.25 0.50 0.25)(0.40 0.38 0.22)(0.43 0.37 0.20)(0.02 0.38 0.60)(0.0 0.1 0.9)(0.84 0.16 0.00)(0.25 0.31 0.44)(0.41 0.29 0.30)(0.23 0.42 0.35)(0.16 0.28 0.56)) ;
}
potential ( MvmtFeatures | Scenario ) 
{
  data = ((0.25 0.55 0.20 0.00)(0.05 0.10 0.10 0.75)(0.1 0.3 0.3 0.3)(0.18 0.38 0.34 0.10)(0.02 0.02 0.26 0.70)(0.05 0.07 0.05 0.83)(0.10 0.25 0.15 0.50)(0.0 0.6 0.1 0.3)(0.2 0.1 0.2 0.5)(0.04 0.00 0.04 0.92)(0.50 0.35 0.09 0.06)) ;
}
potential ( RHRatio | Scenario ) 
{
  data = ((0.05 0.50 0.45)(0.1 0.5 0.4)(0.40 0.15 0.45)(0.20 0.45 0.35)(0.80 0.05 0.15)(0.0 0.0 1.0)(0.6 0.0 0.4)(0.0 0.7 0.3)(0.1 0.7 0.2)(0.4 0.4 0.2)(0.15 0.45 0.40)) ;
}
potential ( SfcWndShfDis | Scenario ) 
{
  data = ((0.65 0.05 0.10 0.08 0.04 0.07 0.01)(0.65 0.05 0.10 0.10 0.02 0.07 0.01)(0.00 0.65 0.20 0.02 0.06 0.05 0.02)(0.12 0.02 0.02 0.02 0.45 0.27 0.10)(0.06 0.14 0.04 0.04 0.25 0.40 0.07)(0.10 0.10 0.10 0.02 0.00 0.56 0.12)(0.02 0.05 0.05 0.00 0.35 0.33 0.20)(0.01 0.10 0.15 0.40 0.00 0.23 0.11)(0.02 0.10 0.50 0.30 0.01 0.02 0.05)(0.06 0.08 0.04 0.02 0.60 0.14 0.06)(0.05 0.13 0.05 0.39 0.13 0.15 0.10)) ;
}
potential ( SynForcng | Scenario ) 
{
  data = ((0.35 0.25 0.00 0.35 0.05)(0.06 0.10 0.06 0.30 0.48)(0.10 0.27 0.40 0.08 0.15)(0.35 0.20 0.10 0.25 0.10)(0.15 0.15 0.10 0.15 0.45)(0.15 0.10 0.05 0.15 0.55)(0.15 0.10 0.10 0.25 0.40)(0.25 0.25 0.25 0.15 0.10)(0.25 0.20 0.15 0.20 0.20)(0.01 0.05 0.01 0.05 0.88)(0.20 0.20 0.35 0.15 0.10)) ;
}
potential ( TempDis | Scenario ) 
{
  data = ((0.13 0.15 0.10 0.62)(0.15 0.15 0.25 0.45)(0.12 0.10 0.35 0.43)(0.10 0.15 0.40 0.35)(0.04 0.04 0.82 0.10)(0.05 0.12 0.75 0.08)(0.03 0.03 0.84 0.10)(0.05 0.40 0.50 0.05)(0.80 0.19 0.00 0.01)(0.10 0.05 0.40 0.45)(0.2 0.3 0.3 0.2)) ;
}
potential ( WindAloft | Scenario ) 
{
  data = ((0.00 0.95 0.01 0.04)(0.2 0.3 0.2 0.3)(0.05 0.09 0.59 0.27)(0.03 0.32 0.42 0.23)(0.07 0.66 0.02 0.25)(0.5 0.0 0.0 0.5)(0.25 0.30 0.25 0.20)(0.20 0.14 0.43 0.23)(0.20 0.41 0.10 0.29)(0.96 0.00 0.00 0.04)(0.03 0.08 0.33 0.56)) ;
}
potential ( WindFieldMt | Scenario ) 
{
  data = ((0.8 0.2)(0.35 0.65)(0.75 0.25)(0.7 0.3)(0.65 0.35)(0.15 0.85)(0.7 0.3)(0.3 0.7)(0.5 0.5)(0.01 0.99)(0.7 0.3)) ;
}
potential ( WindFieldPln | Scenario ) 
{
  data = ((0.05 0.60 0.02 0.10 0.23 0.00)(0.08 0.60 0.02 0.10 0.20 0.00)(0.10 0.00 0.75 0.00 0.00 0.15)(0.10 0.15 0.20 0.05 0.30 0.20)(0.43 0.10 0.15 0.06 0.06 0.20)(0.60 0.07 0.01 0.12 0.20 0.00)(0.25 0.01 0.30 0.01 0.03 0.40)(0.04 0.02 0.04 0.80 0.10 0.00)(0.20 0.30 0.05 0.37 0.07 0.01)(0.60 0.08 0.07 0.03 0.20 0.02)(0.10 0.05 0.10 0.05 0.20 0.50)) ;
}
potential ( SatContMoist_Wet_AMInstabMt_None_R5Fcst_SIG_Dewpoints_LowAtStation | SatContMoist AMInstabMt R5Fcst Dewpoints )
{
  data = ((1 0)(1 0)(1 0)(1 0)(1 0)(1 0)(1 0)(1 0)(1 0)(1 0)(1 0)(1 0)(1 0)(1 0)(1 0)(1 0)(1 0)(1 0)(1 0)(1 0)(1 0)(0 1)(1 0)(0 1)(0 1)(0 1)(0 1)(0 1)(1 0)(1 0)(1 0)(1 0)(1 0)(1 0)(1 0)(0 1)(1 0)(0 1)(0 1)(0 1)(0 1)(0 1)(0 1)(1 0)(0 1)(0 1)(0 1)(0 1)(0 1)(1 0)(1 0)(1 0)(1 0)(1 0)(1 0)(1 0)(0 1)(1 0)(0 1)(0 1)(0 1)(0 1)(0 1)(1 0)(1 0)(1 0)(1 0)(1 0)(1 0)(1 0)(1 0)(1 0)(1 0)(1 0)(1 0)(1 0)(1 0)(1 0)(1 0)(1 0)(1 0)(1 0)(1 0)(1 0)(1 0)(1 0)(1 0)(1 0)(1 0)(1 0)(1 0)(1 0)(1 0)(1 0)(1 0)(1 0)(1 0)(1 0)(1 0)(1 0)(1 0)(1 0)(1 0)(1 0)(1 0)(1 0)(1 0)(1 0)(1 0)(1 0)(1 0)(1 0)(1 0)(1 0)(1 0)(1 0)(1 0)(1 0)(1 0)(1 0)(1 0)(1 0)(1 0)(1 0)(1 0)(1 0)(1 0)(1 0)(1 0)(1 0)(1 0)(1 0)(1 0)(1 0)(1 0)(1 0)(1 0)(1 0)(1 0)(1 0)(1 0)(1 0)(1 0)(1 0)(1 0)(1 0)(1 0)(0 1)(1 0)(0 1)(0 1)(0 1)(0 1)(0 1)(1 0)(1 0)(1 0)(1 0)(1 0)(1 0)(1 0)(0 1)(1 0)(0 1)(0 1)(0 1)(0 1)(0 1)(0 1)(1 0)(0 1)(0 1)(0 1)(0 1)(0 1)(1 0)(1 0)(1 0)(1 0)(1 0)(1 0)(1 0)(0 1)(1 0)(0 1)(0 1)(0 1)(0 1)(0 1)(1 0)(1 0)(1 0)(1 0)(1 0)(1 0)(1 0)(1 0)(1 0)(1 0)(1 0)(1 0)(1 0)(1 0)(1 0)(1 0)(1 0)(1 0)(1 0)(1 0)(1 0)(0 1)(1 0)(0 1)(0 1)(0 1)(0 1)(0 1)(1 0)(1 0)(1 0)(1 0)(1 0)(1 0)(1 0)(0 1)(1 0)(0 1)(0 1)(0 1)(0 1)(0 1)(0 1)(1 0)(0 1)(0 1)(0 1)(0 1)(0 1)(1 0)(1 0)(1 0)(1 0)(1 0)(1 0)(1 0)(0 1)(1 0)(0 1)(0 1)(0 1)(0 1)(0 1)) ;
}