{}
DTMC
Point found: {p0:0.03618709878362544;p1:0.0866684198199755;p2:0.99999;p3:0.07919728609590657}: 8984800897326147/9007199254740992 (approx. 0.9975132827884255)
This procedure took 1.537994623184204s (from start: 1.546492576599121s)
